…
```r
library(dplyr)

activity %>%
  group_by(date) %>%
  summarise(
    total_steps_per_day = sum(steps, na.rm = TRUE)
  ) -> total_steps_each_day 

total_steps_each_day
```

```
## # A tibble: 61 x 2
##    date       total_steps_per_day
##    <fct>                    <int>
##  1 2012-10-01                   0
##  2 2012-10-02                 126
##  3 2012-10-03               11352
##  4 2012-10-04               12116
##  5 2012-10-05               13294
##  6 2012-10-06               15420
##  7 2012-10-07               11015
##  8 2012-10-08                   0
##  9 2012-10-09               12811
## 10 2012-10-10                9900
## # ... with 51 more rows
```
…
```r
activity %>%
  group_by(date) %>%
  summarise(
    total_steps_per_day = sum(steps, na.rm = TRUE)
  ) -> total_steps_each_day 

total_steps_each_day
```

```
## # A tibble: 61 x 2
##    date       total_steps_per_day
##    <fct>                    <dbl>
##  1 2012-10-01              10766.
##  2 2012-10-02                126 
##  3 2012-10-03              11352 
##  4 2012-10-04              12116 
##  5 2012-10-05              13294 
##  6 2012-10-06              15420 
##  7 2012-10-07              11015 
##  8 2012-10-08              10766.
##  9 2012-10-09              12811 
## 10 2012-10-10               9900 
## # ... with 51 more rows
```
…
